%YAML 1.1
%TAG !u! tag:unity3d.com,2011:
--- !u!74 &7400000
AnimationClip:
  m_ObjectHideFlags: 0
  m_CorrespondingSourceObject: {fileID: 0}
  m_PrefabInstance: {fileID: 0}
  m_PrefabAsset: {fileID: 0}
  m_Name: Scenario_Charlie_out
  serializedVersion: 6
  m_Legacy: 0
  m_Compressed: 0
  m_UseHighQualityCurve: 1
  m_RotationCurves: []
  m_CompressedRotationCurves: []
  m_EulerCurves: []
  m_PositionCurves: []
  m_ScaleCurves: []
  m_FloatCurves: []
  m_PPtrCurves:
  - curve:
    - time: 0
      value: {fileID: 21300000, guid: 990baf3a64a4a9f42a29e07dc1ddfb27, type: 3}
    - time: 0.083333336
      value: {fileID: 21300000, guid: f33427ae94787bd42af172fe2cc54144, type: 3}
    - time: 0.16666667
      value: {fileID: 21300000, guid: 073162d0c1e45e04f96a71f75d1f367d, type: 3}
    - time: 0.25
      value: {fileID: 21300000, guid: 39a7f93817719864f9eaf7ad761a3f91, type: 3}
    - time: 0.33333334
      value: {fileID: 21300000, guid: 83f700d3cee1c5f4c9d1aac3aecf442f, type: 3}
    - time: 0.41666666
      value: {fileID: 21300000, guid: 34c70549074665244ab455cca9a93b73, type: 3}
    - time: 0.5
      value: {fileID: 21300000, guid: 26f807c2380e7e0488f5e72b3eb958ab, type: 3}
    - time: 0.5833333
      value: {fileID: 21300000, guid: 8d0e5a457a2f22a43b227601389b046a, type: 3}
    attribute: m_Sprite
    path: 
    classID: 114
    script: {fileID: 11500000, guid: fe87c0e1cc204ed48ad3b37840f39efc, type: 3}
  m_SampleRate: 12
  m_WrapMode: 0
  m_Bounds:
    m_Center: {x: 0, y: 0, z: 0}
    m_Extent: {x: 0, y: 0, z: 0}
  m_ClipBindingConstant:
    genericBindings:
    - serializedVersion: 2
      path: 0
      attribute: 2015549526
      script: {fileID: 11500000, guid: fe87c0e1cc204ed48ad3b37840f39efc, type: 3}
      typeID: 114
      customType: 0
      isPPtrCurve: 1
    pptrCurveMapping:
    - {fileID: 21300000, guid: 990baf3a64a4a9f42a29e07dc1ddfb27, type: 3}
    - {fileID: 21300000, guid: f33427ae94787bd42af172fe2cc54144, type: 3}
    - {fileID: 21300000, guid: 073162d0c1e45e04f96a71f75d1f367d, type: 3}
    - {fileID: 21300000, guid: 39a7f93817719864f9eaf7ad761a3f91, type: 3}
    - {fileID: 21300000, guid: 83f700d3cee1c5f4c9d1aac3aecf442f, type: 3}
    - {fileID: 21300000, guid: 34c70549074665244ab455cca9a93b73, type: 3}
    - {fileID: 21300000, guid: 26f807c2380e7e0488f5e72b3eb958ab, type: 3}
    - {fileID: 21300000, guid: 8d0e5a457a2f22a43b227601389b046a, type: 3}
  m_AnimationClipSettings:
    serializedVersion: 2
    m_AdditiveReferencePoseClip: {fileID: 0}
    m_AdditiveReferencePoseTime: 0
    m_StartTime: 0
    m_StopTime: 0.6666666
    m_OrientationOffsetY: 0
    m_Level: 0
    m_CycleOffset: 0
    m_HasAdditiveReferencePose: 0
    m_LoopTime: 0
    m_LoopBlend: 0
    m_LoopBlendOrientation: 0
    m_LoopBlendPositionY: 0
    m_LoopBlendPositionXZ: 0
    m_KeepOriginalOrientation: 0
    m_KeepOriginalPositionY: 1
    m_KeepOriginalPositionXZ: 0
    m_HeightFromFeet: 0
    m_Mirror: 0
  m_EditorCurves: []
  m_EulerEditorCurves: []
  m_HasGenericRootTransform: 0
  m_HasMotionFloatCurves: 0
  m_Events: []
